[
	{
		"order": {
			"order_id": "200585",
			"order_date": "08-08-2020",
			"order_status": "DELIVERED",
			"user_id": "100102",
			"order_items": [
				{
					"order_item_quantity": "1",
					"product_id": "0010132",
					"product_name": "DVD Player"
				}
			]
		}
	},
	{
		"order": {
			"order_id": "200586",
			"order_date": "22-05-2020",
			"order_status": "PENDING",
			"user_id": "100102",
			"order_items": [
				{
					"order_item_quantity": "1",
					"product_id": "0010133",
					"product_name": "Laptop"
				},
				{
					"order_item_quantity": "1",
					"product_id": "0010132",
					"product_name": "DVD Player"
				}
			]
		}
	},
	{
		"order": {
			"order_id": "200587",
			"order_date": "26-05-2020",
			"order_status": "PENDING",
			"user_id": "100102",
			"order_items": [
				{
					"order_item_quantity": "1",
					"product_id": "0010137",
					"product_name": "Mobile Phone"
				},
				{
					"order_item_quantity": "1",
					"product_id": "0010132",
					"product_name": "DVD Player"
				}
			]
		}
	},
	{
		"order": {
			"order_id": "200588",
			"order_date": "29-05-2020",
			"order_status": "DELIVERED",
			"user_id": "100102",
			"order_items": [
				{
					"order_item_quantity": "1",
					"product_id": "0010139",
					"product_name": "Air Conditioner"
				},
				{
					"order_item_quantity": "1",
					"product_id": "0010137",
					"product_name": "Mobile Phone"
				}
			]
		}
	},
	{
		"order": {
			"order_id": "200589",
			"order_date": "22-06-2020",
			"order_status": "PENDING",
			"user_id": "100102",
			"order_items": [
				{
					"order_item_quantity": "1",
					"product_id": "0010133",
					"product_name": "Laptop"
				},
				{
					"order_item_quantity": "1",
					"product_id": "0010137",
					"product_name": "Mobile Phone"
				},
				{
					"order_item_quantity": "1",
					"product_id": "0010138",
					"product_name": "Guitar"
				}
			]
		}
	},
	{
		"order": {
			"order_id": "200590",
			"order_date": "14-03-2020",
			"order_status": "DELIVERED",
			"user_id": "100106",
			"order_items": [
				{
					"order_item_quantity": "1",
					"product_id": "0010132",
					"product_name": "DVD Player"
				}
			]
		}
	}
	
]
