[
	{
		"product": {
			"product_id": "0010132",
			"product_name": "DVD Player",
			"product_uom": "EACH",
			"product_price": "50.00",
			"product_price_currency": "USD",
			"product_image_name": "dvd.png"
		}
	},
	{
		"product": {
			"product_id": "0010133",
			"product_name": "Laptop",
			"product_uom": "EACH",
			"product_price": "250.00",
			"product_price_currency": "USD",
			"product_image_name": "laptop.png"
		}
	},
	{
		"product": {
			"product_id": "0010134",
			"product_name": "TV",
			"product_uom": "EACH",
			"product_price": "150.00",
			"product_price_currency": "USD",
			"product_image_name": "tv.png"
		}
	},
	{
		"product": {
			"product_id": "0010135",
			"product_name": "Audio System",
			"product_uom": "EACH",
			"product_price": "100.00",
			"product_price_currency": "USD",
			"product_image_name": "audio-system.png"
		}
	},
	{
		"product": {
			"product_id": "0010136",
			"product_name": "Washing Machine",
			"product_uom": "EACH",
			"product_price": "160.00",
			"product_price_currency": "USD",
			"product_image_name": "washing-machine.png"
		}
	},
	{
		"product": {
			"product_id": "0010137",
			"product_name": "Mobile Phone",
			"product_uom": "EACH",
			"product_price": "100.00",
			"product_price_currency": "USD",
			"product_image_name": "mobile-phone.png"
		}
	},
	{
		"product": {
			"product_id": "0010138",
			"product_name": "Guitar",
			"product_uom": "EACH",
			"product_price": "75.00",
			"product_price_currency": "USD",
			"product_image_name": "guitar.png"
		}
	},
	{
		"product": {
			"product_id": "0010139",
			"product_name": "Air Conditioner",
			"product_uom": "EACH",
			"product_price": "800.00",
			"product_price_currency": "USD",
			"product_image_name": "air-conditioner.png"
		}
	}
]
